{
  "Les stickers": [
    {"id": 1,
    "name":"stickers logo",
    "price": 1299,
    "imgName":  "Images/logo%20signature.png"
    },

    {"id": 2,
          "name":"tee-shirt",
          "price": 1499,
          "imgName":  "Images/Tee-shirt.jpg"
        },
    {"id": 3,
      "name":"Stiker 1",
      "price": 999,
      "imgName":  "Images/Album 1.png"
    },
    {"id": 4,
      "name":"Gravure",
      "price": 1999,
      "imgName":  "Images/FAB%20LAB%20VICHY.jpg"
    }
  ],
  "Team IEQT": [
    {"id": 5,
      "name":"Porte clé",
      "price": 1999,
      "imgName":  "Images/porte-cle.jpg"
    },
    {"id": 6,
      "name":"Mug",
      "price": 699,
      "imgName":  "Images/Cofee.png"
    }
  ]
}